{
    "fields": [
        {
            "name": "name",
            "type": "string"
        },
        {
            "name": "phone",
            "type": "string"
        },
        {
            "name": "pax",
            "type": "number"
        },
        {
            "name": "outlet",
            "type": "number"
        },
        {
            "name": "area",
            "type": "select",
            "options": {
                "technology": "Smoking",
                "tips": "No Smoking"
            }
        },
        {
            "name": "reservasi_date",
            "type": "date"
        }
    ]
}